kathleen-analysis
…
# Keep only finite, plausible response times (0–2 hours)
sim_results_clean <- sim_results %>%
  filter(is.finite(total_response_secs),
         total_response_secs >= 0,
         total_response_secs <= 2*60*60)

sim_results_clean

# A tibble: 2,445 × 9
   scenario incident_id assigned_station assigned_unit wait_secs travel_secs
   <chr>          <int> <chr>            <chr>             <dbl>       <dbl>
 1 S0                 1 Central          Central_1             0         414
 2 S0                 2 Central          Central_1             0         236
 3 S0                 3 Central          Central_1             0         375
 4 S0                 4 Central          Central_1             0         301
 5 S0                 5 Central          Central_1             0         194
 6 S0                 6 Central          Central_1             0         243
 7 S0                 7 Central          Central_2             0         311
 8 S0                 8 South            South_1               0         298
 9 S0                 9 Central          Central_1             0         182
10 S0                10 Central          Central_2             0         187
# ℹ 2,435 more rows
# ℹ 3 more variables: total_response_secs <dbl>, service_secs <dbl>,
#   total_time_secs <dbl>
…
